Chapter 2 Data Management with the Tidyverse | PSYC6060 Course Notes
…
Required Packages

tidyverse

2.2 Basic Tidyverse Commands

library(tidyverse)
okcupid_profiles <- read_csv("data_okcupid.csv")

You can see the first few rows of the data set using the print() command:

print(okcupid_profiles)

## # A tibble: 59,946 x 6
##      age diet              height pets                      sex   status   
##    <dbl> <chr>              <dbl> <chr>                     <chr> <chr>    
##  1    22 strictly anything     75 likes dogs and likes cats m     single   
##  2    35 mostly other          70 likes dogs and likes cats m     single   
##  3    38 anything              68 has cats                  m     available
##  4    23 vegetarian            71 likes cats                m     single   
##  5    29 <NA>                  66 likes dogs and likes cats m     single   
##  6    29 mostly anything       67 likes cats                m     single   
##  7    32 strictly anything     65 likes dogs and likes cats f     single   
##  8    31 mostly anything       65 likes dogs and likes cats f     single   
##  9    24 strictly anything     67 likes dogs and likes cats f     single   
## 10    37 mostly anything       65 likes dogs and likes cats m     single   
## # … with 59,936 more rows
…
2.2.1 select()

The select() command allows you to obtain a subset of the columns in your data. The command below obtains can be used to obtain the age and height columns. You can read the command as: take the okcupid_profiles data and then select the age and height columns. You can see that this prints out the data with just the age and height columns.

okcupid_profiles %>% select(age, height)

## # A tibble: 59,946 x 2
##      age height
##    <dbl>  <dbl>
##  1    22     75
##  2    35     70
##  3    38     68
##  4    23     71
##  5    29     66
##  6    29     67
##  7    32     65
##  8    31     65
##  9    24     67
## 10    37     65
## # … with 59,936 more rows
…
