Chapter 4 Experiment: Within one-way | PSYC6060 Course Notes
…
The pivot_long() command below coverts our data to the tidy data format. In this command we specify the the columns march, may, and june are all levels of a single varible called occasion. We specify the columns involved with the cols argument. The code march:july after the cols argument indicates to the computer to use the march column and the july column and all the columns in between. Each column name represents a level of the variable occasion. The names_to argument is used to indicate that a new column called occasion should be created to hold the different months. The value_to argument is used to indicate that a new column called elapsed_time should created to hold all the values from the march, may, and july column.

analytic_data_nway_tidy <- analytic_data_within_nway %>%
  pivot_longer(pizza_hot:burger_cold,
               names_to = c("food", "temperature"),
               names_sep = "_",
               values_to = "taste"
  )

You can see the data in the new format below.

print(analytic_data_nway_tidy)

## # A tibble: 36 x 5
##    id    sex    food   temperature taste
##    <fct> <fct>  <chr>  <chr>       <dbl>
##  1 1     male   pizza  hot             7
##  2 1     male   pizza  cold            6
##  3 1     male   steak  hot             6
##  4 1     male   steak  cold            3
##  5 1     male   burger hot             7
##  6 1     male   burger cold            4
##  7 2     female pizza  hot             8
##  8 2     female pizza  cold            7
##  9 2     female steak  hot             6
## 10 2     female steak  cold            3
## # … with 26 more rows
…
4.3.5 Pivot to tidy data

But now comes the complicated point wher eyou need to pivot the data to longer.

print(analytic_data_occasions)

## # A tibble: 300 x 8
##    id      age sex    eye_color esteem_t1 esteem_t2 jobsat_t1 jobsat_t2
##    <fct> <dbl> <fct>  <fct>         <dbl>     <dbl>     <dbl>     <dbl>
##  1 1        23 male   blue            3.2       3.8      4         4.2 
##  2 2        22 female brown           3.8       4.4      5         4.4 
##  3 3        18 male   hazel           3.8       4.4      4.4       5   
##  4 4        23 female blue            3         3.6      3.5       4.2 
##  5 5        22 male   <NA>            3.4       4        4         4.25
##  6 6        17 female hazel           3.5       4.2      3.8       4.4 
##  7 7        23 male   blue            3         3.6      3.6       4.2 
##  8 8        22 female brown           3.8       4.4      4.6       5.2 
##  9 9        17 male   hazel           3.6       4.2      3.75      4   
## 10 10       NA female blue            3.6       4.2      3.8       4.5 
## # … with 290 more rows

The pivot_longer() command below coverts our data to the tidy data format. In this command we specify the the columns with data by using esteem_t1:jobsat_t2, this selects these two columns and all of the columns between them. Each of these columns represents a dependent variable at a particular time in the format “variable_time” (e.g., esteem_t1). The code names_to = c(“.value”, “time”) explains this format to R. It indicates first part of the column name contains the name of the variable (expressed in the code as “.value”). It also indicates that the second part of the column name represents time. The line names_sep = "_" tells the R that the underscore character is used to separate the first part of the name from the second part of the name. When this code is excuted it creates a tidy version of data set stored in analytic_survey_tidy.

analytic_occasion_tidy <- analytic_data_occasions %>%
  pivot_longer(esteem_t1:jobsat_t2,
               names_to = c(".value", "time"),
               names_sep = "_")

You can see the new data with the print() command. Notice that each participant has multiple rows associated with them.

print(analytic_occasion_tidy)

## # A tibble: 600 x 7
##    id      age sex    eye_color time  esteem jobsat
##    <fct> <dbl> <fct>  <fct>     <chr>  <dbl>  <dbl>
##  1 1        23 male   blue      t1       3.2   4   
##  2 1        23 male   blue      t2       3.8   4.2 
##  3 2        22 female brown     t1       3.8   5   
##  4 2        22 female brown     t2       4.4   4.4 
##  5 3        18 male   hazel     t1       3.8   4.4 
##  6 3        18 male   hazel     t2       4.4   5   
##  7 4        23 female blue      t1       3     3.5 
##  8 4        23 female blue      t2       3.6   4.2 
##  9 5        22 male   <NA>      t1       3.4   4   
## 10 5        22 male   <NA>      t2       4     4.25
## # … with 590 more rows
…
