Chapter 3 Making your data ready for analysis | PSYC6060 Course Notes
…
my_tibble <- read_csv(file = "data_okcupid.csv")

## Parsed with column specification:
## cols(
##   age = col_double(),
##   diet = col_character(),
##   height = col_double(),
##   pets = col_character(),
##   sex = col_character(),
##   status = col_character()
## )

print(my_tibble)

## # A tibble: 59,946 x 6
##      age diet         height pets              sex   status 
##    <dbl> <chr>         <dbl> <chr>             <chr> <chr>  
##  1    22 strictly an…     75 likes dogs and l… m     single 
##  2    35 mostly other     70 likes dogs and l… m     single 
##  3    38 anything         68 has cats          m     availa…
##  4    23 vegetarian       71 likes cats        m     single 
##  5    29 <NA>             66 likes dogs and l… m     single 
##  6    29 mostly anyt…     67 likes cats        m     single 
##  7    32 strictly an…     65 likes dogs and l… f     single 
##  8    31 mostly anyt…     65 likes dogs and l… f     single 
##  9    24 strictly an…     67 likes dogs and l… f     single 
## 10    37 mostly anyt…     65 likes dogs and l… m     single 
## # … with 59,936 more rows
…
