Chapter 1 Introduction | Welcome!
…
There many ways of viewing the actual data you loaded. A few of these are illustrated now.

1.8.1 view(): See a spreadsheet view of your data

You can inspect your data in a spreadsheet view by using the view command. Do NOT add this command to your script file – EVER. Adding it to the script can cause substantial problems. Type this command in the Console.

view(okcupid_profiles)

1.8.2 print(): See you data in the Console

You can inspect the first few rows of your data with the print() command. It is OK to add a print command to your script. Try the print() command below in the Console:

print(okcupid_profiles)

## # A tibble: 59,946 x 6
##      age diet         height pets              sex   status 
##    <dbl> <chr>         <dbl> <chr>             <chr> <chr>  
##  1    22 strictly an…     75 likes dogs and l… m     single 
##  2    35 mostly other     70 likes dogs and l… m     single 
##  3    38 anything         68 has cats          m     availa…
##  4    23 vegetarian       71 likes cats        m     single 
##  5    29 <NA>             66 likes dogs and l… m     single 
##  6    29 mostly anyt…     67 likes cats        m     single 
##  7    32 strictly an…     65 likes dogs and l… f     single 
##  8    31 mostly anyt…     65 likes dogs and l… f     single 
##  9    24 strictly an…     67 likes dogs and l… f     single 
## 10    37 mostly anyt…     65 likes dogs and l… m     single 
## # … with 59,936 more rows
…
