Chapter 5 Sampling Accuracy | Welcome!
…
In this chapter we will use a population of heights to learn about random sampling. To engage in the learning activities you need to activate the required packages:

library(tidyverse)
library(learnSampling)

Next, we create a large population with 100,000 people using the get_height_population() command:

pop_data <- get_height_population() 

The print() command can be used to confirm that the population contains 100,000 people. We see that each row in pop_data represents a single person. There is a column called height that contains the heights for everyone in the population.

print(pop_data)

## # A tibble: 100,000 × 3
##       id sex    height
##    <int> <chr>   <dbl>
##  1     1 male      177
##  2     2 female    151
##  3     3 female    171
##  4     4 male      157
##  5     5 male      169
##  6     6 male      187
##  7     7 female    163
##  8     8 male      173
##  9     9 female    172
## 10    10 male      193
## # … with 99,990 more rows
…
We can assess bias, as illustrated in the above figure by drawing a large number of samples from a population with the code below. Our goal is calculate a mean for each sample so that we have a sampling distribution of means. In theory, we should take an infinite number of samples, however, to be practical we will take 50000 samples to create an approximate sampling distribution of means. We use the code below to do so:

many_samples <- get_M_samples(pop.data = pop_data, 
                              pop.column.name = height,
                              n = 10,
                              number.of.samples = 50000)

many_samples <- readRDS("ch_samples/many_samples_n10.RDS")

We use the print() command to see the first few rows of the 50000 samples:

print(many_samples)

## # A tibble: 50,000 × 5
##    study     n sample_mean sample_var_n sample_var_n_1
##    <int> <dbl>       <dbl>        <dbl>          <dbl>
##  1     1    10        174.         27.8           30.9
##  2     2    10        162.         83.4           92.6
##  3     3    10        173.        139.           155. 
##  4     4    10        180         322.           358. 
##  5     5    10        173.        161.           179. 
##  6     6    10        172         160.           177. 
##  7     7    10        166.         86.5           96.1
##  8     8    10        174.        139.           155. 
##  9     9    10        178.        167.           186. 
## 10    10    10        168.        263.           292. 
## # … with 49,990 more rows
…
female_heights <- female_population_heights %>% 
  pull(height)

Next, we obtain a large number of samples from each population and place them in many_samples.

many_samples<-  get_d_samples_from_population_data(pop1 = male_heights,
                                   pop2 = female_heights,
                                   cell.n = 10,
                                   number.of.samples = 50000)

We can examine the contents of many_samples using the print() command. Each row of many_samples represents a single study. Each study has two samples: 10 males and 10 females. For both males and females we calculate the mean and variance. As well, we calculate the \(d\) and \(d_{unbiased}\) for each row. If you examine the first row carefully you see that the data in this row corresponds to the hand calculation example.

print(many_samples)

## # A tibble: 50,000 × 7
##    n_per_cell mean1 var1_n_1 mean2 var2_n_1     d d_unbiased
##         <dbl> <dbl>    <dbl> <dbl>    <dbl> <dbl>      <dbl>
##  1         10  187.     92.2  160.     66.8  3.04       2.91
##  2         10  183     107.   166      77.8  1.77       1.69
##  3         10  181      39.8  169.    144.   1.27       1.22
##  4         10  175.     80.3  162.     89.4  1.4        1.34
##  5         10  184.     91.0  164.     28.9  2.65       2.54
##  6         10  182.     96.4  166.    106.   1.61       1.54
##  7         10  177.     97.2  167     162.   0.84       0.81
##  8         10  188     212.   161.    205.   1.89       1.81
##  9         10  185.     54.7  166.     91.5  2.28       2.18
## 10         10  179.     69.3  162.     55.4  2.2        2.11
## # … with 49,990 more rows
…
## Rows: 300000 Columns: 2

## ── Column specification ────────────────────────────────────
## Delimiter: ","
## dbl (2): weight, height

## 
## ℹ Use `spec()` to retrieve the full column specification for this data.
## ℹ Specify the column types or set `show_col_types = FALSE` to quiet this message.

The print() command reveals there are 300000 rows and two columns (weight and height). Each row represents a different person in the population.

print(pop_data)

## # A tibble: 300,000 × 2
##    weight height
##     <dbl>  <dbl>
##  1   143.   163.
##  2   156.   171.
##  3   144.   160.
##  4   152    190.
##  5   155.   173.
##  6   147.   160.
##  7   145.   177.
##  8   153.   179.
##  9   151.   177.
## 10   146.   167.
## # … with 299,990 more rows
…
We see from this matrix that the population correlation (N = 300000) between weight and height is \(\rho\) = .50 (with rounding), see Figure 5.8A.

To examine the extent to which this population correlation, \(\rho\) = .50, is estimated by the sample statistic, \(r\), we need to take a large number of samples. Therefore, we take 50000 samples (each n = 75) and calculate the correlation for each:

set.seed(1)
many_samples <- get_r_samples_from_population_data(data = pop_data,
                                                   n = 75,
                                                   number.of.samples = 50000)

We can examine the first few rows of many_samples using the print() command. There are 50000 rows and each row represent a different sample of 75 people. The correlation between height and weight for each sample is presented in the \(r\) column.

print(many_samples)

## # A tibble: 50,000 × 3
##    sample.number     n     r
##            <int> <dbl> <dbl>
##  1             1    75  0.38
##  2             2    75  0.5 
##  3             3    75  0.56
##  4             4    75  0.52
##  5             5    75  0.49
##  6             6    75  0.37
##  7             7    75  0.57
##  8             8    75  0.4 
##  9             9    75  0.59
## 10            10    75  0.5 
## # … with 49,990 more rows
…
